<svg xmlns="http://www.w3.org/2000/svg" width="46" height="46" viewBox="0 0 46 46">
  <defs>
    <style>
      .cls-1 {
        fill: #272727;
        fill-rule: evenodd;
        opacity: 0.6;
      }
    </style>
  </defs>
  <path class="cls-1" d="M399.492,2710.87l-0.97-1.74a18.364,18.364,0,0,0,9.49-13.15l1.976,0.31A20.319,20.319,0,0,1,399.492,2710.87Zm-22.977,0a20.316,20.316,0,0,1-10.5-14.58l1.976-.31a18.364,18.364,0,0,0,9.49,13.15Zm20.408-37.66a19.125,19.125,0,0,0-17.849,0l-0.934-1.77a21.134,21.134,0,0,1,19.716,0ZM403,2694a12.5,12.5,0,0,1-7.559-2.17l-0.441-.3v-3.97c0-2.31,4.581-4.56,8-4.56s8,2.25,8,4.56v3.97l-0.441.3A12.5,12.5,0,0,1,403,2694Zm-6-3.54a12.458,12.458,0,0,0,12,0v-2.9c-0.145-.7-3.126-2.56-6-2.56s-5.855,1.86-6,2.58Zm6-5.46a4.88,4.88,0,0,1-5-4.6v-2.8a5.017,5.017,0,0,1,10,0v2.8A4.88,4.88,0,0,1,403,2685Zm0-10a2.935,2.935,0,0,0-3,2.6v2.8a3.031,3.031,0,0,0,6,0v-2.8A2.935,2.935,0,0,0,403,2675Zm-15,40a11.919,11.919,0,0,1-7.627-2.22l-0.373-.3v-3.92c0-2.31,4.581-4.56,8-4.56s8,2.25,8,4.56v3.92l-0.373.3A11.919,11.919,0,0,1,388,2715Zm-6-3.5a12.75,12.75,0,0,0,12,0v-2.94c-0.145-.7-3.126-2.56-6-2.56s-5.855,1.86-6,2.58Zm6-5.5a4.88,4.88,0,0,1-5-4.6v-2.8a5.017,5.017,0,0,1,10,0v2.8A4.88,4.88,0,0,1,388,2706Zm0-10a2.935,2.935,0,0,0-3,2.6v2.8a3.031,3.031,0,0,0,6,0v-2.8A2.935,2.935,0,0,0,388,2696Zm-15-2a12.5,12.5,0,0,1-7.559-2.17l-0.441-.3v-3.97c0-2.31,4.581-4.56,8-4.56s8,2.25,8,4.56v3.97l-0.441.3A12.5,12.5,0,0,1,373,2694Zm-6-3.54a12.458,12.458,0,0,0,12,0v-2.9c-0.145-.7-3.126-2.56-6-2.56s-5.855,1.86-6,2.58Zm6-5.46a4.88,4.88,0,0,1-5-4.6v-2.8a5.017,5.017,0,0,1,10,0v2.8A4.88,4.88,0,0,1,373,2685Zm0-10a2.935,2.935,0,0,0-3,2.6v2.8a3.031,3.031,0,0,0,6,0v-2.8A2.935,2.935,0,0,0,373,2675Z" transform="translate(-365 -2669)"/>
</svg>
