<svg xmlns="http://www.w3.org/2000/svg" width="36" height="44" viewBox="0 0 36 44">
  <defs>
    <style>
      .cls-1 {
        fill: #6715d1;
        fill-rule: evenodd;
      }
    </style>
  </defs>
  <path class="cls-1" d="M1114.78,2499.23a12.409,12.409,0,0,0-17.43-.11,12.088,12.088,0,0,0,.54,17.88,8.71,8.71,0,0,1,3.07,6.58v6.15a4.3,4.3,0,0,0,4.32,4.27h1.44a4.3,4.3,0,0,0,4.32-4.27v-6.08a8.657,8.657,0,0,1,3.01-6.6A12.107,12.107,0,0,0,1114.78,2499.23Zm-8.79,14.76h-0.58a0.565,0.565,0,1,1,0-1.13,0.578,0.578,0,0,1,.58.57v0.56Zm0.01,5.11a0.862,0.862,0,0,1,.87.86v2.92h-1.74v-2.92A0.862,0.862,0,0,1,1106,2519.1Zm3.3,5.5v1.26h-6.6v-1.26h6.6Zm-6.6,2.98h6.6v1.26h-6.6v-1.26Zm4.02,4.7h-1.44a2.582,2.582,0,0,1-2.44-1.72h6.32A2.582,2.582,0,0,1,1106.72,2532.28Zm6.2-16.53a10.3,10.3,0,0,0-3.59,7.13h-0.72v-2.92a2.55,2.55,0,0,0-.88-1.93v-2.84a2.769,2.769,0,0,0,1.17-2.25v-1.33a3.346,3.346,0,0,0-3.36-3.32h-1.57a0.86,0.86,0,1,0,0,1.72h1.57a1.615,1.615,0,0,1,1.62,1.6v0.32a2.342,2.342,0,0,0-1.75-.79,2.285,2.285,0,1,0,0,4.57h0.58v1.67a2.6,2.6,0,0,0-2.6,2.58v2.92h-0.72a10.467,10.467,0,0,0-3.64-7.18,10.388,10.388,0,0,1-.46-15.36,10.614,10.614,0,0,1,18.03,7.46A10.44,10.44,0,0,1,1112.92,2515.75Zm-6.74-15.97h-0.02a0.86,0.86,0,1,0-.01,1.72h0.02A0.86,0.86,0,1,0,1106.18,2499.78Zm3.82,1.01a0.875,0.875,0,0,0-1.18.33,0.846,0.846,0,0,0,.33,1.17,6.309,6.309,0,0,1,3.28,5.51,0.87,0.87,0,0,0,1.74,0A8.022,8.022,0,0,0,1110,2500.79Zm-4-6.75a0.869,0.869,0,0,0,.87-0.86v-2.32a0.87,0.87,0,0,0-1.74,0v2.32A0.869,0.869,0,0,0,1106,2494.04Zm17.13,12.9h-2.34a0.86,0.86,0,1,0,0,1.72h2.34A0.86,0.86,0,1,0,1123.13,2506.94Zm-31.92,0h-2.34a0.86,0.86,0,1,0,0,1.72h2.34A0.86,0.86,0,1,0,1091.21,2506.94Zm25.86,10.6a0.869,0.869,0,0,0-1.23,0,0.845,0.845,0,0,0,0,1.21l1.66,1.64a0.881,0.881,0,0,0,1.23,0,0.845,0.845,0,0,0,0-1.21Zm-22.14-19.47a0.881,0.881,0,0,0,1.23,0,0.845,0.845,0,0,0,0-1.21l-1.66-1.65a0.888,0.888,0,0,0-1.23,0,0.857,0.857,0,0,0,0,1.22Zm22.57-2.86-1.66,1.65a0.845,0.845,0,0,0,0,1.21,0.881,0.881,0,0,0,1.23,0l1.66-1.64a0.857,0.857,0,0,0,0-1.22A0.888,0.888,0,0,0,1117.5,2495.21Zm-22.57,22.33-1.66,1.64a0.845,0.845,0,0,0,0,1.21,0.881,0.881,0,0,0,1.23,0l1.66-1.64a0.845,0.845,0,0,0,0-1.21A0.869,0.869,0,0,0,1094.93,2517.54Z" transform="translate(-1088 -2490)"/>
</svg>
